{
    "streams": "camera_slides",
    "cameraUrl": "https://wowzaqaedge.cern.ch/livehd/smil:1327056_camera_all.smil/playlist.m3u8",
    "slidesUrl": "https://wowzaqaedge.cern.ch/livehd/smil:1327056_slides_all.smil/playlist.m3u8",
    "title": "Pension Fund - Annual Information Meeting - Caisse de pensions - Reunion d'Information Annuelle"
}