{
    "streams": "camera_slides",
    "cameraUrl": "https://wowza.cern.ch/livehd/smil:1492366_camera_all.smil/playlist.m3u8",
    "slidesUrl": "https://wowza.cern.ch/livehd/smil:1492366_slides_all.smil/playlist.m3u8",
    "title": "Click Chemistry, Excellence and Equality in Science"
}