{
    "streams": "camera_slides",
    "cameraUrl": "https://wowza.cern.ch/livehd/smil:1483514_camera_all.smil/playlist.m3u8",
    "slidesUrl": "https://wowza.cern.ch/livehd/smil:1483514_slides_all.smil/playlist.m3u8",
    "title": "ATLAS Collaboration Week - Building the ATLAS of Tomorrow"
}