{
    "streams": "camera_slides",
    "cameraUrl": "https://wowza.cern.ch/livehd/smil:1355812_camera_all.smil/playlist.m3u8",
    "slidesUrl": "https://wowza.cern.ch/livehd/smil:1355812_slides_all.smil/playlist.m3u8",
    "title": "The charm and beauty of probing CP violation with the CMS detector"
}