{
    "streams": "camera",
    "cameraUrl": "https://cern2.vo.llnwd.net/e21/lstelescopes/webcam1lst.stream/playlist.m3u8",
    "slidesUrl": "https://wowza.cern.ch/livehd/smil:1328504_slides_all.smil/playlist.m3u8",
    "title": "Edgio testing"
}