{
    "streams": "camera_slides",
    "cameraUrl": "https://wowza.cern.ch/livehd/smil:1342857_camera_all.smil/playlist.m3u8",
    "slidesUrl": "https://wowza.cern.ch/livehd/smil:1342857_slides_all.smil/playlist.m3u8",
    "title": "Technology trends and the planning for Run4"
}