{
    "streams": "camera_slides",
    "cameraUrl": "https://wowza.cern.ch/livehd/smil:1370463_camera_all.smil/playlist.m3u8",
    "slidesUrl": "https://wowza.cern.ch/livehd/smil:1370463_slides_all.smil/playlist.m3u8",
    "title": "One year into the 2023 Cyber-Security Audit"
}