{
    "streams": "camera_slides",
    "cameraUrl": "https://wowzaqaedge.cern.ch/livehd/smil:1338639_camera_all.smil/playlist.m3u8",
    "slidesUrl": "https://wowzaqaedge.cern.ch/livehd/smil:1338639_slides_all.smil/playlist.m3u8",
    "title": "ATLAS Weekly"
}