{
    "streams": "camera",
    "cameraUrl": "https://cern2.vo.llnwd.net/e20/livehd/smil:1412339_camera_all.smil/playlist.m3u8?DVR",
    "slidesUrl": "https://wowza.cern.ch/livehd/smil:1412339_slides_all.smil/playlist.m3u8",
    "title": "CERN: An extraordinary human endeavour"
}