{
    "streams": "camera_slides",
    "cameraUrl": "https://wowza.cern.ch/livehd/smil:1355798_camera_all.smil/playlist.m3u8",
    "slidesUrl": "https://wowza.cern.ch/livehd/smil:1355798_slides_all.smil/playlist.m3u8",
    "title": "Dielectrons in Pb--Pb collisions with ALICE: Light from the little big bang"
}