{
    "streams": "camera_slides",
    "cameraUrl": "https://wowza.cern.ch/livehd/smil:1473772_camera_all.smil/playlist.m3u8",
    "slidesUrl": "https://wowza.cern.ch/livehd/smil:1473772_slides_all.smil/playlist.m3u8",
    "title": "Large-scale Integrated Circuits with 2D MoS2"
}