{
    "streams": "camera_slides",
    "cameraUrl": "https://wowza.cern.ch/livehd/smil:1312650_camera_all.smil/playlist.m3u8",
    "slidesUrl": "https://wowza.cern.ch/livehd/smil:1312650_slides_all.smil/playlist.m3u8",
    "title": "Supersymmetry - Beyond minimal models with the ATLAS experiment"
}