{
    "streams": "camera_slides",
    "cameraUrl": "https://wowza.cern.ch/livehd/smil:1503574_camera_all.smil/playlist.m3u8",
    "slidesUrl": "https://wowza.cern.ch/livehd/smil:1503574_slides_all.smil/playlist.m3u8",
    "title": "ATLAS Weekly/Open EB"
}