{
    "streams": "camera_slides",
    "cameraUrl": "https://wowza.cern.ch/livehd/smil:1464081_camera_all.smil/playlist.m3u8",
    "slidesUrl": "https://wowza.cern.ch/livehd/smil:1464081_slides_all.smil/playlist.m3u8",
    "title": "Impact Reports from 2025 #3"
}