{
    "streams": "camera",
    "cameraUrl": "https://wowza.cern.ch/liveoutside/smil:1106223_camera_all.smil/playlist.m3u8",
    "slidesUrl": "https://wowza.cern.ch/livehd/smil:1106223_slides_all.smil/playlist.m3u8",
    "title": "Enano test"
}