{
    "streams": "camera_slides",
    "cameraUrl": "https://wowza.cern.ch/livehd/smil:1441591_camera_all.smil/playlist.m3u8",
    "slidesUrl": "https://wowza.cern.ch/livehd/smil:1441591_slides_all.smil/playlist.m3u8",
    "title": "Accessing the strong interaction in three-hadron systems with ALICE"
}