{
    "streams": "camera_slides",
    "cameraUrl": "https://wowza.cern.ch/livehd/smil:1497164_camera_all.smil/playlist.m3u8",
    "slidesUrl": "https://wowza.cern.ch/livehd/smil:1497164_slides_all.smil/playlist.m3u8",
    "title": "Kubernetes: State and Expansion"
}