{
    "streams": "camera_slides",
    "cameraUrl": "https://wowza.cern.ch/livehd/smil:1389765_camera_all.smil/playlist.m3u8",
    "slidesUrl": "https://wowza.cern.ch/livehd/smil:1389765_slides_all.smil/playlist.m3u8",
    "title": "Fast Machine Learning at the Edge for HEP Experiments"
}