{
    "streams": "camera_slides",
    "cameraUrl": "https://wowza.cern.ch/livehd/smil:1378906_camera_all.smil/playlist.m3u8",
    "slidesUrl": "https://wowza.cern.ch/livehd/smil:1378906_slides_all.smil/playlist.m3u8",
    "title": "Operational launch of the Open Quantum Institute"
}