{
    "streams": "camera_slides",
    "cameraUrl": "https://wowza20.cern.ch/livehd/ngrp:1370447_camera_all/medialist.smil",
    "slidesUrl": "https://wowza21.cern.ch/livehd/ngrp:1370447_slides_all/medialist.smil/",
    "title": "Impact Reports from 2024 #2"
}