{
    "streams": "camera_slides",
    "cameraUrl": "https://wowzaqaedge.cern.ch/livehd/smil:1349803_camera_all.smil/playlist.m3u8",
    "slidesUrl": "https://wowzaqaedge.cern.ch/livehd/smil:1349803_slides_all.smil/playlist.m3u8",
    "title": "Test encoders QA 2"
}