{
    "streams": "camera_slides",
    "cameraUrl": "https://wowzaqaedge.cern.ch/livehd/smil:1301000_camera_all.smil/playlist.m3u8",
    "slidesUrl": "https://wowzaqaedge.cern.ch/livehd/smil:1301000_slides_all.smil/playlist.m3u8",
    "title": "Electroweak milestones - 50 years of neutral currents, 40 years of W and Z bosons"
}