{
    "streams": "camera_slides",
    "cameraUrl": "https://wowza.cern.ch/livehd/smil:1457357_camera_all.smil/playlist.m3u8",
    "slidesUrl": "https://wowza.cern.ch/livehd/smil:1457357_slides_all.smil/playlist.m3u8",
    "title": "Report from the RISC-V Summit"
}