{
    "streams": "camera_slides",
    "cameraUrl": "https://wowzaqaedge.cern.ch/livehd/smil:1330374_camera_all.smil/playlist.m3u8",
    "slidesUrl": "https://wowzaqaedge.cern.ch/livehd/smil:1330374_slides_all.smil/playlist.m3u8",
    "title": "Software for Data Center operations: PDUTools and Podium"
}