{
    "streams": "camera_slides",
    "cameraUrl": "https://wowza.cern.ch/livehd/smil:1413574_camera_all.smil/playlist.m3u8",
    "slidesUrl": "https://wowza.cern.ch/livehd/smil:1413574_slides_all.smil/playlist.m3u8",
    "title": "HSE Seminar - Quality Assurance"
}