{
    "streams": "camera_slides",
    "cameraUrl": "https://wowza.cern.ch/livehd/smil:1445864_camera_all.smil/playlist.m3u8",
    "slidesUrl": "https://wowza.cern.ch/livehd/smil:1445864_slides_all.smil/playlist.m3u8",
    "title": "Open Source at CERN in 2024/2025"
}