{
    "streams": "camera_slides",
    "cameraUrl": "https://wowza.cern.ch/livehd/smil:1484265_camera_all.smil/playlist.m3u8",
    "slidesUrl": "https://wowza.cern.ch/livehd/smil:1484265_slides_all.smil/playlist.m3u8",
    "title": "Special End-of-Year ATLAS Weekly"
}